../Core/Src/angulo.c:3:19:constantes_defecto	64	static
../Core/Src/angulo.c:14:9:es_bisiesto	16	static
../Core/Src/angulo.c:23:8:fecha2doy	56	static
../Core/Src/angulo.c:35:7:Dec2Rad	16	static
../Core/Src/angulo.c:38:7:Rad2Dec	16	static
../Core/Src/angulo.c:42:7:sign	16	static
../Core/Src/angulo.c:54:18:ephemeritas	288	static
../Core/Src/angulo.c:149:15:pos_Sol	64	static
../Core/Src/angulo.c:157:15:pos_Sol_inclinado_y_desviado	88	static
../Core/Src/angulo.c:165:7:angulo_track_wid	32	static
../Core/Src/angulo.c:174:7:backtracking	64	static
../Core/Src/angulo.c:214:7:producto_escalar	40	static
../Core/Src/angulo.c:225:7:angulo_incidencia	24	static
