../Core/Src/main.c:73:5:main	24	static
../Core/Src/main.c:208:6:SystemClock_Config	88	static
../Core/Src/main.c:255:13:MX_USART2_UART_Init	8	static
../Core/Src/main.c:288:13:MX_GPIO_Init	48	static
../Core/Src/main.c:324:6:Error_Handler	4	static,ignoring_inline_asm
