../MiLibreria/stm32f4xx_nucleo.c:177:10:BSP_GetVersion	4	static
../MiLibreria/stm32f4xx_nucleo.c:188:6:BSP_LED_Init	40	static
../MiLibreria/stm32f4xx_nucleo.c:213:6:BSP_LED_DeInit	40	static
../MiLibreria/stm32f4xx_nucleo.c:230:6:BSP_LED_On	16	static
../MiLibreria/stm32f4xx_nucleo.c:241:6:BSP_LED_Off	16	static
../MiLibreria/stm32f4xx_nucleo.c:252:6:BSP_LED_Toggle	16	static
../MiLibreria/stm32f4xx_nucleo.c:267:6:BSP_PB_Init	40	static
../MiLibreria/stm32f4xx_nucleo.c:304:6:BSP_PB_DeInit	40	static
../MiLibreria/stm32f4xx_nucleo.c:319:10:BSP_PB_GetState	16	static
